%YAML 1.1
%TAG !u! tag:unity3d.com,2011:
--- !u!114 &11400000
MonoBehaviour:
  m_ObjectHideFlags: 0
  m_CorrespondingSourceObject: {fileID: 0}
  m_PrefabInstance: {fileID: 0}
  m_PrefabAsset: {fileID: 0}
  m_GameObject: {fileID: 0}
  m_Enabled: 1
  m_EditorHideFlags: 0
  m_Script: {fileID: 11500000, guid: d0ed095193975a44d83d8d3849690f52, type: 3}
  m_Name: Laser2Upgrade
  m_EditorClassIdentifier: 
  upgradeName: Laser 2
  description: KILL THEM ALL.
  boostPerSecond: 0
  clickBoost: 0
